{
  "openapi": "3.0.3",
  "info": {
    "title": "Swagger Rahman - testing 3.0",
    "description": "This is a sample Server based on the OpenAPI 3.0"
  },
  "security": [{ "bearerAuth":[]}],

  "tags": [
    {"name": "auth", "description":"auth ini loh"},
    {"name": "user", "description":"User Status"},
    {"name": "rooms", "description":"room ini loh"},
    {"name": "ratu", "description":"ratu ini loh"}
    
  ],
  "paths": {
    "auth/login": {
      "post": {
        "tags": [ "auth"],
        "summary": "Login with id and jwt",
        "requestBody": {
            "application/json": {
              "schema": {
                "$ref": "#/schemas/loginResponse/succes"}
                  }
                }
              },
              "response":{
                "200":{
                  "description" : "Succesfull Operation",
                  "content": {
                    "application/json":{
                      "schema":{
                        "$ref":"#/schemas/loginResponse/succes"
                      }
                    }
                  }
                },
                "400":{
                  "description" : "Failed Operation",
                  "content": {
                    "application/json":{
                      "schema":{
                        "$ref":"#/schemas/loginResponse/Failed"
                      }
                    }
                  }
                }
            }
          },
  "schema":{
    "createRoomsBody":{
      "type": "object",
        "properties": {
         "name":{
           "type":"string"
          },
         "result":{
           "type":"string"
         },
         "main_player":{
            "type":"integer",
            "format": "int64"
          }
       }
      }
    },
    "loginBody":{
    "type":"object",
    "properties":{
      "username": {
        "type":"string",
        "example": "rahman1"
      },
      "password":{
        "type":"string",
        "example":"rahman1"
      }
    }
  },
  "loginResponse":{
    "failed":{
      "type": "object",
      "properties":{
        "status": {
          "type":"string",
          "example":"login Gagal"
        },
        "msg":"string",
        "example":"hayoloh salah password nih...."
      }
    },
    "succes":{
      "type": "object",
      "properties":{
        "status": {
          "type":"string",
          "example":"rahman1"
        },
        "token": "string",
        "example":"hjldfslhfczlksaljhiowudowdkalsduuw9ueoshuioasdushckjzxh"
      }
    }
   }
  },
  "user" :{
    "get":{
      "tags": ["user"],
      "summary":"get all user",
      "parameters": [
        {
          "name":"username",
          "in": "query",
          "required": true,
          "schema":{
            "username":{ "type": "string", "example":"rahman1" }
          }
        }
      ],
      "response":{
        "200":{
          "description" : "Succesfull Operation",
          "content": {
            "application/json":{
              "schema":{
                "$ref":"#/schemas/loginResponse/succes"
              }
            }
          } 
        },
        "400":{
          "description" : "Failed Operation",
          "content": {
            "application/json":{
              "schema":{
                "$ref":"#/schemas/loginResponse/Failed"
              }
            }
          }
        }
    }
  },
  "data": {
    "schema":{
      "regisBody":{
        "type":"object",
        "properties":{
          "id": {
            "type":"integer"
          },
          "username":{
            "type" :"string"
          },
          "password":{
            "type":"string"
          },
          "email":{
            "type":"string"
          }
        }
      }
    }
  },


  "/user/one": {
    "get":{
      "tags": ["user"],
      "summary":"get one user",
      "parameters": [
        {
          "name":"username",
          "in": "query",
          "required": true,
          "schema":{
            "username":{ "type": "string", "example":"rahman1" }
          }
        }
      ],
      "response":{
        "200":{
          "description" : "Succesfull Operation",
          "content": {
            "application/json":{
              "schema":{
                "$ref":"#/schemas/loginResponse/succes"
              }
            }
          } 
        },
        "400":{
          "description" : "Failed Operation",
          "content": {
            "application/json":{
              "schema":{
                "$ref":"#/schemas/loginResponse/Failed"
              }
            }
          }
        }
    }
  },


  "/rooms":{
      "post":{  
      "tags":["rooms"],
      "summary":"Create rooms",
      "parameters":[
        {
          "name": "body",
          "in"  : "body",
          "required": true,
          "schema": {
            "$ref":"#/schemas/RoomsBody"
                    }
        }
                  ]
              }
  },
  "/auth/register": {
    "post":{
      "tags":["auth"],
      "summary":"register",
      "requestBody":{
        "content":{
          "application/json":{
            "schema":{
              "$ref":"#/data/schema/regisBody"
            }
          }
        }
      },
      "response":{
        "200":{
          "description": "register Succes",
          "content":{
            "application/json":{
              "schema":{
                "$ref":"#/data/schema/regisBody"
              }
            }
          }
        },
        "405":{
          "description":"register Failed"
        }
      }
    }
  },

  "components":{
    "securitySchemes": {
      "bearerAuth":{
        "name":"authorization",
        "type":"apiKey",
        "scheme": "bearer",
        "bearerFormat": "JWT",
        "in": "header"
          }
        }
      }
    }
  }
}
  
      

